<svg width="48" height="48" viewBox="0 0 48 48" fill="none" xmlns="http://www.w3.org/2000/svg">
<path d="M24 0C10.7454 0 0 10.7454 0 24C0 37.2546 10.7454 48 24 48C37.2546 48 48 37.2546 48 24C48 10.7454 37.2546 0 24 0ZM17.1429 24C17.1429 22.6438 17.545 21.318 18.2985 20.1904C19.052 19.0627 20.1229 18.1838 21.3759 17.6648C22.6289 17.1458 24.0076 17.01 25.3378 17.2746C26.6679 17.5392 27.8897 18.1923 28.8487 19.1513C29.8077 20.1103 30.4608 21.3321 30.7254 22.6622C30.99 23.9924 30.8542 25.3711 30.3352 26.6241C29.8162 27.8771 28.9373 28.948 27.8096 29.7015C26.682 30.455 25.3562 30.8571 24 30.8571C22.1814 30.8571 20.4372 30.1347 19.1513 28.8487C17.8653 27.5628 17.1429 25.8186 17.1429 24ZM42.5614 17.3261L33.3118 17.8929C32.4733 16.6205 31.3848 15.532 30.1125 14.6936L30.6739 5.44393C33.407 6.43306 35.8891 8.01116 37.9443 10.0664C39.9996 12.1216 41.5777 14.6037 42.5668 17.3368L42.5614 17.3261ZM10.0596 10.0596C12.1104 8.00108 14.5921 6.42285 17.3261 5.43857L17.8929 14.6882C16.618 15.5276 15.5276 16.618 14.6882 17.8929L5.43857 17.3314C6.42214 14.5956 8.00042 12.112 10.0596 10.0596ZM5.43857 30.6739L14.6882 30.1125C15.5282 31.3854 16.6186 32.4739 17.8929 33.3118L17.3314 42.5614C14.5989 41.5729 12.1172 39.9956 10.062 37.9413C8.00676 35.887 6.42837 33.406 5.43857 30.6739ZM37.9404 37.9404C35.8896 39.9989 33.4079 41.5772 30.6739 42.5614L30.1125 33.3118C31.3848 32.4733 32.4733 31.3848 33.3118 30.1125L42.5614 30.6739C41.5772 33.4079 39.9989 35.8896 37.9404 37.9404Z" fill="#948D84"/>
</svg>
