<svg width="20" height="20" viewBox="0 0 20 20" fill="none" xmlns="http://www.w3.org/2000/svg">
<path d="M18.947 6.30496C18.9369 5.54758 18.7951 4.79773 18.528 4.08896C18.2964 3.49111 17.9425 2.94816 17.4892 2.49479C17.0358 2.04142 16.4929 1.68761 15.895 1.45596C15.1953 1.19331 14.4562 1.0513 13.709 1.03596C12.747 0.992957 12.442 0.980957 10 0.980957C7.55801 0.980957 7.24501 0.980957 6.29001 1.03596C5.54317 1.05141 4.80436 1.19343 4.10501 1.45596C3.50707 1.68745 2.96403 2.0412 2.51064 2.49459C2.05725 2.94798 1.7035 3.49102 1.47201 4.08896C1.20884 4.78809 1.06713 5.52707 1.05301 6.27396C1.01001 7.23696 0.997009 7.54196 0.997009 9.98396C0.997009 12.426 0.997009 12.738 1.05301 13.694C1.06801 14.442 1.20901 15.18 1.47201 15.881C1.70389 16.4787 2.05791 17.0215 2.51145 17.4747C2.96499 17.9279 3.50807 18.2815 4.10601 18.513C4.80344 18.7862 5.54238 18.9383 6.29101 18.963C7.25401 19.006 7.55901 19.019 10.001 19.019C12.443 19.019 12.756 19.019 13.711 18.963C14.4582 18.9482 15.1974 18.8066 15.897 18.544C16.4947 18.312 17.0375 17.9581 17.4909 17.5048C17.9442 17.0515 18.2981 16.5086 18.53 15.911C18.793 15.211 18.934 14.473 18.949 13.724C18.992 12.762 19.005 12.457 19.005 10.014C19.003 7.57196 19.003 7.26196 18.947 6.30496ZM9.99401 14.602C7.44001 14.602 5.37101 12.533 5.37101 9.97896C5.37101 7.42496 7.44001 5.35596 9.99401 5.35596C11.2201 5.35596 12.396 5.84302 13.263 6.71C14.1299 7.57698 14.617 8.75286 14.617 9.97896C14.617 11.2051 14.1299 12.3809 13.263 13.2479C12.396 14.1149 11.2201 14.602 9.99401 14.602ZM14.801 6.26296C14.204 6.26296 13.723 5.78096 13.723 5.18496C13.723 5.04346 13.7509 4.90334 13.805 4.77262C13.8592 4.64189 13.9385 4.5231 14.0386 4.42305C14.1387 4.32299 14.2574 4.24363 14.3882 4.18948C14.5189 4.13533 14.659 4.10746 14.8005 4.10746C14.942 4.10746 15.0821 4.13533 15.2129 4.18948C15.3436 4.24363 15.4624 4.32299 15.5624 4.42305C15.6625 4.5231 15.7418 4.64189 15.796 4.77262C15.8501 4.90334 15.878 5.04346 15.878 5.18496C15.878 5.78096 15.396 6.26296 14.801 6.26296Z" fill="#002175"/>
<path d="M9.99403 12.982C11.6525 12.982 12.997 11.6375 12.997 9.97895C12.997 8.32044 11.6525 6.97595 9.99403 6.97595C8.33552 6.97595 6.99103 8.32044 6.99103 9.97895C6.99103 11.6375 8.33552 12.982 9.99403 12.982Z" fill="#002175"/>
</svg>
