<svg width="24" height="24" viewBox="0 0 24 24" fill="none" xmlns="http://www.w3.org/2000/svg">
<path d="M11.3985 0.00373641C9.47254 0.0269864 5.33179 0.343486 3.01579 2.46824C1.29304 4.17524 0.691543 6.69899 0.621043 9.81974C0.562543 12.9292 0.492043 18.7687 6.12079 20.3587V22.7805C6.12079 22.7805 6.08554 23.7495 6.72604 23.9482C7.51504 24.198 7.96429 23.4525 8.71429 22.6515L10.113 21.0697C13.9643 21.39 16.914 20.652 17.2538 20.5425C18.0353 20.2927 22.437 19.7302 23.1563 13.89C23.8943 7.85849 22.797 4.05824 20.8163 2.33924H20.8043C20.2065 1.78874 17.8043 0.0382364 12.4373 0.0187364C12.4373 0.0187364 12.039 -0.00826359 11.3985 0.00298641V0.00373641ZM11.4645 1.69949C12.0113 1.69574 12.3435 1.71899 12.3435 1.71899C16.8863 1.73099 19.0545 3.09824 19.566 3.55874C21.234 4.98824 22.0935 8.41424 21.4643 13.4497C20.8665 18.3322 17.2965 18.6412 16.6358 18.852C16.3545 18.942 13.7565 19.5825 10.4835 19.3717C10.4835 19.3717 8.04604 22.3132 7.28404 23.0707C7.16329 23.2035 7.02229 23.2425 6.93229 23.223C6.80329 23.1915 6.76429 23.0317 6.77179 22.8127L6.79504 18.7935C2.02129 17.4735 2.30254 12.4927 2.35354 9.89099C2.41204 7.28924 2.90029 5.16074 4.35379 3.71924C6.31054 1.94999 9.82654 1.71149 11.463 1.69949H11.4645ZM11.8245 4.30049C11.7853 4.30009 11.7463 4.30747 11.7099 4.32221C11.6734 4.33695 11.6403 4.35876 11.6123 4.38636C11.5844 4.41397 11.5622 4.44684 11.547 4.48308C11.5318 4.51931 11.5239 4.55819 11.5238 4.59749C11.5238 4.76549 11.6603 4.89824 11.8245 4.89824C12.5682 4.88409 13.3072 5.01731 13.9991 5.29021C14.691 5.5631 15.322 5.97027 15.8558 6.48824C16.9455 7.54649 17.4765 8.96849 17.4968 10.8277C17.4968 10.992 17.6295 11.1285 17.7975 11.1285V11.1165C17.8767 11.1167 17.9528 11.0856 18.0091 11.0299C18.0654 10.9743 18.0975 10.8987 18.0983 10.8195C18.1347 9.94435 17.9928 9.07095 17.6812 8.25236C17.3695 7.43378 16.8947 6.68711 16.2855 6.05774C15.0983 4.89749 13.5938 4.29974 11.8245 4.29974V4.30049ZM7.87129 4.98824C7.659 4.95722 7.44249 4.99983 7.25779 5.10899H7.24204C6.81324 5.36034 6.42695 5.67803 6.09754 6.05024C5.82379 6.36674 5.67529 6.68699 5.63629 6.99524C5.61304 7.17899 5.62879 7.36274 5.68354 7.53824L5.70304 7.55024C6.01129 8.45624 6.41404 9.32774 6.90604 10.1482C7.53981 11.301 8.31976 12.367 9.22654 13.32L9.25354 13.359L9.29629 13.3905L9.32329 13.422L9.35479 13.449C10.3112 14.3584 11.3799 15.142 12.5348 15.7807C13.8548 16.4992 14.6558 16.839 15.1365 16.98V16.9875C15.2775 17.0302 15.4058 17.0497 15.5348 17.0497C15.9445 17.0197 16.3324 16.8534 16.6365 16.5772C17.0071 16.2477 17.3212 15.8599 17.5665 15.429V15.4215C17.7968 14.988 17.7188 14.5777 17.3865 14.3002C16.7212 13.7186 16.0016 13.202 15.2378 12.7575C14.7263 12.48 14.2065 12.648 13.9958 12.9292L13.5465 13.4955C13.3163 13.7767 12.8978 13.7377 12.8978 13.7377L12.8858 13.7452C9.76504 12.948 8.93254 9.78824 8.93254 9.78824C8.93254 9.78824 8.89354 9.35849 9.18229 9.13949L9.74479 8.68649C10.014 8.46749 10.2015 7.94849 9.91279 7.43624C9.47134 6.67135 8.95587 5.95165 8.37379 5.28749C8.24654 5.13091 8.06802 5.02438 7.86979 4.98674L7.87129 4.98824ZM12.3435 5.87924C11.9453 5.87924 11.9453 6.48074 12.3473 6.48074C12.8425 6.48877 13.3313 6.59431 13.7857 6.79134C14.2401 6.98836 14.6512 7.273 14.9955 7.62899C15.3097 7.97549 15.551 8.38152 15.7054 8.82302C15.8597 9.26451 15.9239 9.73249 15.894 10.1992C15.8954 10.2782 15.9277 10.3535 15.9839 10.409C16.0401 10.4646 16.1158 10.4959 16.1948 10.4962L16.2068 10.512C16.2864 10.5114 16.3625 10.4795 16.4188 10.4232C16.4751 10.367 16.507 10.2908 16.5075 10.2112C16.5345 9.01949 16.164 8.01974 15.4373 7.21874C14.7068 6.41774 13.6875 5.96849 12.3863 5.87924H12.3435ZM12.8363 7.49624C12.426 7.48424 12.4103 8.09774 12.8168 8.10974C13.8053 8.16074 14.2853 8.66024 14.3483 9.68774C14.3497 9.76573 14.3815 9.84009 14.437 9.8949C14.4925 9.94971 14.5673 9.98061 14.6453 9.98099H14.6573C14.6974 9.97927 14.7368 9.96958 14.7731 9.95248C14.8094 9.93538 14.8419 9.91122 14.8688 9.88141C14.8957 9.8516 14.9164 9.81673 14.9296 9.77884C14.9429 9.74095 14.9485 9.7008 14.946 9.66074C14.8755 8.32124 14.145 7.56674 12.8483 7.49699H12.8363V7.49624Z" fill="#002175"/>
</svg>
